{
  "project_info": {
    "project_number": "176979362201",
    "project_id": "firebase-fondou"
  },
  "client": [
    {
      "client_info": {
        "mobilesdk_app_id": "1:176979362201:android:2bc4b05499b0d958",
        "android_client_info": {
          "package_name": "nz.fondou.fondou"
        }
      },
      "oauth_client": [],
      "api_key": [
        {
          "current_key": "AIzaSyCRbac8-YWuLuK3CsO1mpJM7t9gG2qOzpA"
        }
      ],
      "services": {
        "analytics_service": {
          "status": 1
        },
        "appinvite_service": {
          "status": 1,
          "other_platform_oauth_client": []
        },
        "ads_service": {
          "status": 1
        }
      }
    }
  ],
  "configuration_version": "1"
}